{
  "$schema": "http://json-schema.org/draft-07/schema#",
  "description": "Policy content for scan_execution_policy type",
  "type": "object",
  "properties": {
    "actions": {
      "type": "array",
      "description": "Specifies a list of scans that should be enforced in this policy.",
      "additionalItems": false,
      "items": {
        "type": "object",
        "properties": {
          "scan": {
            "description": "The type of scan that should be enforced to run. Available: `sast`, `sast_iac`, `dast`, `secret_detection`, `container_scanning`, `dependency_scanning`.",
            "enum": [
              "dast",
              "secret_detection",
              "container_scanning",
              "cluster_image_scanning",
              "sast",
              "dependency_scanning",
              "sast_iac",
              "custom"
            ],
            "type": "string"
          },
          "scanner_profile": {
            "description": "A name of the DAST Scanner Profile to be used to execute DAST scan. Supported only when `scan` is set to `dast`.",
            "type": "string"
          },
          "site_profile": {
            "description": "A name of the DAST Site Profile to be used to execute DAST scan. Supported only when `scan` is set to `dast`.",
            "type": [
              "string",
              "null"
            ]
          },
          "variables": {
            "type": "object",
            "description": "Defines environment variables for specific security jobs. Job level property overrides global variables.",
            "additionalProperties": false,
            "patternProperties": {
              "^[a-zA-Z_][a-zA-Z0-9_]*$": {
                "type": "string"
              }
            }
          },
          "tags": {
            "type": "array",
            "additionalItems": false,
            "description": "Defines the runner tags to which the security jobs has to execute.",
            "items": {
              "minLength": 1,
              "type": "string"
            }
          },
          "ci_configuration": {
            "type": "string"
          },
          "ci_configuration_path": {
            "type": "object",
            "properties": {
              "project": {
                "type": "string"
              },
              "file": {
                "type": "string"
              },
              "ref": {
                "type": "string"
              }
            }
          },
          "template": {
            "description": "The type of the CI template that should be used to enforce the scan. Available: `default` and `latest`.",
            "enum": [
              "default",
              "latest"
            ],
            "type": "string"
          }
        },
        "allOf": [
          {
            "if": {
              "properties": {
                "scan": {
                  "const": "custom"
                }
              }
            },
            "then": {
              "anyOf": [
                {
                  "required": [
                    "ci_configuration"
                  ]
                },
                {
                  "required": [
                    "ci_configuration_path"
                  ]
                }
              ],
              "maxProperties": 2
            }
          },
          {
            "if": {
              "properties": {
                "scan": {
                  "const": "dast"
                }
              }
            },
            "then": {
              "required": [
                "site_profile"
              ],
              "maxProperties": 6
            }
          },
          {
            "if": {
              "properties": {
                "scan": {
                  "const": "secret_detection"
                }
              }
            },
            "then": {
              "maxProperties": 4
            }
          },
          {
            "if": {
              "properties": {
                "scan": {
                  "const": "cluster_image_scanning"
                }
              }
            },
            "then": {
              "maxProperties": 3
            }
          },
          {
            "if": {
              "properties": {
                "scan": {
                  "const": "container_scanning"
                }
              }
            },
            "then": {
              "maxProperties": 4
            }
          },
          {
            "if": {
              "properties": {
                "scan": {
                  "const": "sast"
                }
              }
            },
            "then": {
              "maxProperties": 4
            }
          }
        ],
        "additionalProperties": false
      }
    }
  },
  "additionalProperties": false
}
